{
  "label": "Vehículos",
  "mapping": {},
  "entries": {
    "AeroCop": {
      "name": "AeroPatrulla",
      "description": "<p>AV4 tipo Aerodyne. Versión de la policía.</p>\n<p>Estadísticas completas pueden encontrarse en la página 61.</p>"
    },
    "AmeriCar EconoCompact": {
      "name": "AmeriCar EconoCompact",
      "description": "<p>Small and low-cost Compact Groundcar.</p>\n"
    },
    "AmeriCar Family Star Van": {
      "name": "AmeriCar Family Star Van",
      "description": "<p>Comfortable family Compact Groundcar.</p>\n"
    },
    "Dayton TDT 004": {
      "name": "Dayton TDT 004",
      "description": "<p>Troop transport Helicopter.</p>\n"
    },
    "Diego Motors Chupacabra": {
      "name": "Diego Motors Chupacabra",
      "description": "<p>\n  Compact Groundcar built from recycled parts from older vehicles. Low-tech but\n  high-horse-power.\n</p>\n"
    },
    "Diego Motors Range Trike": {
      "name": "Diego Motors Range Trike",
      "description": "<p>Three wheeled Roadbike.</p>\n"
    },
    "Grundy": {
      "name": "Grundy",
      "description": "<p>Coche compacto de aspecto industrial blindado con arado de combate.</p>\n<p>Detalles completos pueden encontrarse en la página 68.</p>"
    },
    "Harriet 100": {
      "name": "Harriet 100",
      "description": "<p>Una motocicleta clásica con un aspecto más femenino.</p>\n<p>Puede encontrar todos los detalles en la página 69.</p>"
    },
    "Harvey 100": {
      "name": "Harvey 100",
      "description": "<p>Una motocicleta de ruta clásica.</p>\n<p>Puede encontrar todos los detalles en la página 69.</p>"
    },
    "Harvey Merc": {
      "name": "Harvey Merc",
      "description": "<p>Una motocicleta de ruta clásica, esta vez con armas montadas.</p>\n<p>Puede encontrar todos los detalles en la página 69.</p>"
    },
    "Highway Master Artemis": {
      "name": "Artemis Maestro de las Carreteras",
      "description": "<p>Una motocicleta de carretera de tipo Low-Rider con cubierta de cristal retráctil. Tiene un modo de sobrecarga que no viene con garantía de seguridad.</p>\n<p>Los detalles completos se pueden encontrar en la página 70.</p>"
    },
    "Kaukaz Volkhov": {
      "name": "Kaukaz Volkhov",
      "description": "<p>\n  An armored pickup Compact Groundcar with mounted machine gun. Comes with a\n  bottle of vodka.\n</p>\n"
    },
    "Makigai Ebi": {
      "name": "Makigai Ebi",
      "description": "<p>Small but well thought out Compact Groundcar.</p>\n"
    },
    "Militech Gorgon Security Van": {
      "name": "Militech Gorgon Security Van",
      "description": "<p>A monster of an armored van.</p>\n"
    },
    "Paladin 500": {
      "name": "Paladín 500",
      "description": "<p>Un coche de alto rendimiento. Ahora puedes ser MadMax. Con dos ametralladoras montadas.</p>\n<p>Puede encontrar todos los detalles en la página 75.</p>"
    },
    "Quadra Thunder-X": {
      "name": "Quadra Thunder-X",
      "description": "<p>A top of the line High Performance Groundcar.</p>\n"
    },
    "SH-45 Patroller Law": {
      "name": "SH-45 Patrullero",
      "description": "<p>Girocóptero de un asiento. Versión de la policía, con ametralladora montada.</p>\n<p>Estadísticas completas pueden encontrarse en la página 58.</p>"
    },
    "SH-45 Patroller": {
      "name": "SH-45 Patrullero",
      "description": "<p>Girocóptero de un asiento. Versión Civil.</p>\n<p>Estadísticas completas pueden encontrarse en la página 58.</p>"
    },
    "Street King Combat Vehicle": {
      "name": "Vehículo de Combate Rey Callejero",
      "description": "<p>Un vehículo de alto rendimiento que es grande, armado y tiene un aspecto militar.</p>\n<p>Los detalles completos se pueden encontrar en la página 77.</p>"
    },
    "Tanson Bellhop": {
      "name": "Tanson Bellhop",
      "description": "<p>\n  A one seat Gyrocopter which can be folded to the size of a large suitcase.\n</p>\n"
    },
    "Tanson JetBoy Hoverboard": {
      "name": "Tanson JetBoy Hoverboard",
      "description": "<p>A hoverboard driven with Athletics Skill. Can't be upgraded.</p>\n"
    },
    "TetraCorp America Badger Corporate Bus": {
      "name": "TetraCorp America Badger Corporate Bus",
      "description": "<p>\n  A luxurious bus for corporate road trips. Equally ell equipped for work\n  meetings and after meeting drinks.\n</p>\n"
    },
    "TetraCorp America MegaHauler": {
      "name": "TetraCorp America MegaHauler",
      "description": "<p>Armored truck transport. As much a train as a car.</p>\n"
    },
    "Yang's Wheels Rickshaw": {
      "name": "Ruedas Rickshaw de Yang",
      "description": "<p>Moto de carretera con tráiler acoplado para pasajeros.</p>\n<p>Puede encontrar todos los detalles en la página 81.</p>"
    },
    "Zacatzontli Pickup Truck": {
      "name": "Zacatzontli Pickup Truck",
      "description": "<p>A Compact Groundcar equipped for off-road travel.</p>\n"
    },
    "Zetatech AeroVox": {
      "name": "Zetatech AeroVox",
      "description": "<p>AV4 type Aerodyne. Civilian version.</p>\n"
    },
    "Zetatech Destination": {
      "name": "Zetatech Destination",
      "description": "<p>AV4 style Aerodyne, civilian model.</p>\n"
    },
    "Zetatech Herakles": {
      "name": "Zetatech Herakles",
      "description": "<p>AV4 type troop transport, armored and armed.</p>\n"
    },
    "Zonda Molly 1K": {
      "name": "Zonda Molly 1K",
      "description": "<p>Off-road Compact Groundcar.</p>\n"
    },
    "Zonda Parallax Cybercycle": {
      "name": "Zonda Parallax Cybercycle",
      "description": "<p>Top of the line Superbike.</p>\n"
    },
    "Zonda Sliver": {
      "name": "Zonda Sliver",
      "description": "<p>A Roadbike with all the gadgets you'd ever need.</p>\n"
    }
  }
}