{
  "label": "Крути педали",
  "mapping": {},
  "entries": {
    "Inline Skates": {
      "name": "Роликовые коньки",
      "description": "<p>Роликовые коньки, детка! Увеличивают скорость на 4 м/ярд для действия бега, при этом другие расширения ног перестают работать. Могут создавать помехи для физического труда со штрафом -2.</p>"
    },
    "Skateboard": {
      "name": "Скейтборд",
      "description": "<p>Круче быть не может. Увеличивает скорость на 4 м/ярд при движении на ровной поверхности или с уклоном вниз. Может создавать помехи для физического труда со штрафом -2.</p>"
    },
    "Bottle Dynamo": {
      "name": "Динамо-машина",
      "description": "<p>Динамо-машина, устанавливаемая на колесо велосипеда. Перерабатывает механическую энергию в электрическую. Заряжает аккумуляторы (например, для оружия) за один час.</p>"
    },
    "Bulletproof Glass": {
      "name": "Пуленепробиваемое стекло",
      "description": "<p>Стекло для кабины получает 7 ПЗ. Подробнее о правилах укрытий написано в основной книге правил на стр. 182.</p>\n<p>Требуется улучшение «Кабина».</p>"
    },
    "Cycle Armor": {
      "name": "Броня для велосипеда",
      "description": "<p>Броня для велосипеда с 7 ОС.</p>\n<p>Требуется улучшение «Усиленная рама».</p>"
    },
    "Electric Pedal Assist": {
      "name": "Электропривод для педалей",
      "description": "<p>Электромотор, облегчающий кручение педали, увеличивающий скорость и снижающий усталость ездока.</p>\n<p>Велосипед опускается на один уровень по таблице нарративной скорости. Если уже на последнем уровне, то скорость увеличивается на 5 миль/ч (8 км/ч).</p>\n<p>Ездок получает бонус +4 к проверкам выносливости во время езды.</p>"
    },
    "Enclosure": {
      "name": "Кабина",
      "description": "<p>Велосипед превращается в трицикл и обрастает кабиной из стекловолокна и пластика.</p>\n<p>Нельзя установить на велосипед с улучшением «Складная рама».</p>"
    },
    "Extended Seat": {
      "name": "Удлинённое сиденье",
      "description": "<p>An elongated saddle, gaining a seat for a passenger.</p>\n"
    },
    "Folding Frame": {
      "name": "Складная рама",
      "description": "<p>Велосипед можно сложить пополам. Он становится размером с большой чемодан. Так его проще переносить и хранить.</p>\n<p>Невозможно установить на велосипед с улучшениями «Кабина», «Усиленная рама» и «Отсек для контрабанды».</p>"
    },
    "Gun Mount": {
      "name": "Крепление для оружия",
      "description": "<p>Система, позволяющая прикрепить на руль штурмовую винтовку, ПП крупного калибра или дробовик, а заодно и рычаг для выстрела.</p>\n<p>Стреляет только вперёд.</p>\n<p>Чтобы прикрепить или снять оружие, требуется действие.</p>"
    },
    "Neon Lightning": {
      "name": "Неоновая подсветка",
      "description": "<p>Оптоволоконная подсветка на раме и колёсах велосипеда.</p>\n<p>Считается за «Светотату» для персонажа верхом или рядом с велосипедом (бонус +2 к гардеробу и стилю.)</p>"
    },
    "Reinforced Frame": {
      "name": "Усиленная рама",
      "description": "<p>Велосипед становится заметно прочней: +5 ПЗТ и рама выдерживает ездока с ТЕЛ 11 и более.</p>\n<p>Нельзя установить на велосипед с улучшением «Складная рама».</p>"
    },
    "Security System": {
      "name": "Система безопасности",
      "description": "<p>Велосипед связан с агентом и электрифицирован. Вор должен пройти проверку сопротивления пыткам/препаратам СЛ13 или отпустить велосипед.</p>\n<p>У велосипеда есть регистрационный нано-VIN.</p>"
    },
    "Smuggling Compartment": {
      "name": "Отсек для контрабанды",
      "description": "<p>Добавляет небольшой скрытый отсек в раме.</p>\n<p>1 дюйм на 6 дюймов (2,54 см x 15, 24 см).</p>\n<p>Проверка навыка <strong>«Спрятать/обнаружить предмет» СЛ17</strong> чтобы найти отсек.</p>\n<p>Нельзя установить на велосипед с улучшением «Складная рама».</p>"
    },
    "Stunt Frame": {
      "name": "Спортивная рама",
      "description": "<p>Велосипед теряет в массе и становится манёвренней.</p>\n<p>Ездок получает бонус +2 к проверкам атлетики во время езды и выполнения манёвров.</p>"
    },
    "Trailer": {
      "name": "Прицеп",
      "description": "<p>Небольшой грузовой прицеп.</p>\n<p>5 футов на 1,5 фута (1,5м x 0,46 м).</p>\n<p>Чтобы отцепить или подцепить прицеп, требуется действие.</p>"
    },
    "Bicycle": {
      "name": "Велосипед",
      "description": "<p>Простой велосипед. Его скорость зависит от ТЕЛ ездока.</p>\n<table style=\"width: 100%; height: 76px;\" border=\"1\">\n<colgroup>\n<col style=\"width: 14.0725%;\">\n<col style=\"width: 42.4307%;\">\n<col style=\"width: 43.4968%;\">\n</colgroup>\n<tbody>\n<tr style=\"height: 19px;\">\n<td style=\"height: 19px;\"><strong>Тело</strong></td>\n<td style=\"height: 19px;\"><strong>Скорость (в бою)</strong></td>\n<td style=\"height: 19px;\"><strong>Скорость (нарративная)</strong></td>\n</tr>\n<tr style=\"height: 19px;\">\n<td style=\"height: 19px;\">&lt;4</td>\n<td style=\"height: 19px;\">8 СКО</td>\n<td style=\"height: 19px;\">19 км/ч / 12 миль/ч</td>\n</tr>\n<tr style=\"height: 19px;\">\n<td style=\"height: 19px;\">4 - 7</td>\n<td style=\"height: 19px;\">10 СКО</td>\n<td style=\"height: 19px;\">32 км/ч / 20 миль/ч</td>\n</tr>\n<tr style=\"height: 19px;\">\n<td style=\"height: 19px;\">8+</td>\n<td style=\"height: 19px;\">15 СКО</td>\n<td style=\"height: 19px;\">\n<p>48 км/ч / 30 миль/ч</p>\n</td>\n</tr>\n</tbody>\n</table>\n<ul>\n<li>Чтобы выдержать ездока с ТЕЛ BODY &gt; 10, требуется улучшение «Усиленная рама»</li>\n<li>Велосипеды для проверок используют навык «Атлетика»</li>\n<li>Только ручное управление</li>\n<li>Езда на велосипеде не поднимает тебя в очереди инициативы</li>\n<li>Таран наносит 3d6 урона, при это ездок слетает с велосипеда и получает критическое ранение «Травма шеи»</li>\n<li>При уклонении нельзя приземлиться на велосипед</li>\n</ul>"
    }
  }
}